<?xml version="1.0" standalone="no"?>
<!DOCTYPE svg PUBLIC "-//W3C//DTD SVG 20010904//EN"
 "http://www.w3.org/TR/2001/REC-SVG-20010904/DTD/svg10.dtd">
<svg version="1.0" xmlns="http://www.w3.org/2000/svg"
 width="742.000000pt" height="742.000000pt" viewBox="0 0 742.000000 742.000000"
 preserveAspectRatio="xMidYMid meet">
<metadata>
Created by potrace 1.11, written by Peter Selinger 2001-2013
</metadata>
<g transform="translate(0.000000,742.000000) scale(0.100000,-0.100000)"
fill="#000000" stroke="none">
<path d="M6 6591 c-2 -3 -4 -473 -4 -1043 l1 -1038 58 0 59 0 2 492 3 493 517
0 518 0 0 -492 0 -493 59 0 59 0 -2 1043 -1 1042 -57 1 -58 1 0 -492 0 -492
-520 0 -520 -1 0 494 0 493 -55 0 c-30 -1 -57 -4 -59 -8z"/>
<path d="M2115 5899 c-130 -14 -217 -46 -328 -119 -327 -214 -416 -667 -196
-991 206 -305 602 -404 929 -233 78 41 139 90 204 164 27 30 51 58 55 62 3 4
6 -64 6 -150 l0 -157 58 -3 57 -3 0 661 0 660 -59 0 -59 0 0 -97 c-1 -54 -1
-100 -1 -101 -1 -2 -21 20 -45 50 -112 137 -283 233 -448 253 -92 10 -112 11
-173 4z m215 -134 c125 -35 190 -73 280 -165 64 -65 122 -162 152 -255 7 -24
13 -89 13 -160 0 -135 -18 -202 -82 -307 -69 -114 -224 -235 -338 -263 -16 -4
-41 -10 -55 -13 -46 -12 -215 -7 -265 7 -27 8 -84 31 -125 52 -298 153 -406
518 -244 819 57 106 206 233 318 270 112 37 245 42 346 15z"/>
<path d="M3847 5904 c-1 -1 -28 -5 -59 -8 -169 -20 -351 -122 -458 -257 -22
-28 -40 -47 -41 -42 0 4 0 50 1 101 l1 92 -61 0 c-41 0 -60 -4 -61 -12 0 -7
-1 -398 -1 -868 l-1 -855 61 -3 61 -3 0 338 c0 186 0 352 1 368 l0 30 27 -34
c112 -142 275 -241 442 -268 79 -13 232 -8 301 11 249 65 450 265 516 511 35
133 24 318 -28 449 -91 232 -327 416 -568 442 -61 6 -130 10 -133 8z m163
-135 c77 -15 205 -79 266 -133 69 -61 139 -165 171 -256 30 -84 40 -229 22
-310 -39 -181 -157 -334 -318 -415 -162 -81 -354 -85 -516 -9 -63 29 -156 96
-190 136 -48 57 -104 151 -125 209 -28 81 -38 237 -20 317 53 243 266 444 497
468 32 4 59 8 61 9 5 5 95 -5 152 -16z"/>
<path d="M5461 5898 c-177 -20 -355 -118 -468 -256 l-43 -53 0 101 0 100 -60
0 c-59 0 -60 -1 -61 -27 0 -16 0 -406 -1 -868 l0 -840 61 -3 61 -3 0 368 1
368 22 -30 c96 -131 268 -237 440 -270 68 -13 221 -14 276 -1 209 48 390 185
485 366 61 116 81 199 80 335 0 82 -6 141 -18 185 -93 344 -422 568 -775 528z
m234 -134 c209 -54 379 -231 431 -449 19 -81 14 -220 -10 -296 -67 -215 -231
-365 -452 -414 -109 -25 -221 -16 -330 25 -180 67 -326 233 -370 420 -18 76
-16 224 3 290 93 319 410 504 728 424z"/>
<path d="M6380 5777 c0 -7 11 -35 24 -63 14 -27 38 -78 54 -114 16 -36 93
-200 169 -365 197 -422 196 -419 196 -431 0 -5 -23 -59 -53 -120 -29 -60 -70
-147 -92 -194 -276 -584 -466 -929 -767 -1385 -162 -246 -338 -486 -528 -720
-59 -74 -111 -134 -114 -134 -4 -1 -6 36 -6 82 0 138 -43 245 -140 344 -94 96
-273 184 -408 201 -100 13 -278 7 -370 -12 -46 -9 -291 -67 -304 -72 -9 -3
-11 1 -5 13 13 32 12 117 -2 153 -51 124 -170 204 -313 214 -92 5 -137 -32
-148 -124 -5 -39 -3 -50 8 -50 9 0 16 11 17 28 7 82 37 115 107 118 150 4 315
-131 315 -259 0 -50 -15 -79 -53 -101 -29 -17 -30 -19 -12 -26 11 -4 25 -6 30
-4 11 3 328 74 360 80 11 2 43 8 70 13 70 13 299 6 360 -12 220 -64 375 -187
436 -345 32 -82 32 -228 1 -293 -35 -73 -358 -394 -592 -588 -298 -248 -658
-454 -947 -541 -97 -29 -116 -26 -335 55 -82 31 -173 60 -202 66 -66 13 -226
13 -296 -1 -30 -6 -71 -13 -90 -16 -19 -3 -82 -17 -140 -30 -161 -38 -214 -41
-301 -14 -193 58 -502 247 -592 361 -115 146 -155 372 -106 598 47 216 182
369 385 435 200 65 413 48 560 -43 104 -65 149 -73 220 -41 86 39 100 41 131
18 15 -12 60 -52 99 -91 48 -46 74 -65 79 -57 8 13 -84 113 -149 161 -49 36
-86 37 -156 3 -69 -33 -103 -29 -197 25 -117 66 -209 93 -322 92 -53 -1 -107
-3 -121 -5 -14 -3 -41 -7 -60 -10 -87 -13 -227 -76 -298 -134 -85 -70 -160
-192 -192 -312 -18 -68 -20 -85 -24 -212 -4 -132 12 -222 57 -323 l27 -60 -72
75 c-60 63 -110 121 -183 212 -44 55 -144 214 -200 320 -103 193 -194 438
-210 566 -15 114 -49 173 -110 188 -138 35 -161 -186 -55 -529 78 -250 259
-518 544 -802 338 -338 727 -568 1139 -674 61 -16 130 -32 152 -35 23 -4 52
-9 65 -11 66 -13 205 -19 415 -19 209 1 242 3 357 27 479 100 1000 423 1528
948 126 124 191 193 374 399 18 19 79 94 137 165 300 369 598 809 842 1246 66
120 257 491 257 502 0 2 31 69 69 148 38 79 82 173 99 209 16 36 54 115 82
175 29 61 87 184 130 275 43 91 102 217 132 280 168 351 268 568 268 578 0 8
-19 12 -54 12 l-54 0 -40 -82 c-62 -128 -166 -344 -267 -556 -51 -106 -97
-193 -101 -193 -4 -1 -96 185 -204 413 l-197 413 -57 3 c-42 2 -56 0 -56 -11z
m-3264 -4611 c16 -4 38 -8 49 -10 11 -3 58 -19 105 -36 47 -18 120 -44 162
-59 84 -30 103 -41 72 -42 -10 0 -30 -3 -44 -5 -144 -27 -222 -32 -405 -29
-110 2 -211 6 -225 9 -14 4 -43 9 -65 12 -62 8 -95 14 -165 30 -36 9 -75 18
-87 20 -33 6 -73 23 -73 29 0 4 4 4 8 1 5 -3 69 8 142 25 74 16 150 32 169 35
20 3 42 7 50 10 8 3 40 7 70 11 31 3 57 6 58 8 6 4 152 -3 179 -9z"/>
<path d="M170 4017 l0 -467 30 0 30 0 0 391 0 392 36 -39 c21 -21 139 -145
265 -274 125 -129 284 -293 353 -365 l125 -130 1 473 0 472 -30 0 -30 0 0
-397 0 -398 -106 110 c-59 61 -206 213 -328 339 -121 125 -249 258 -283 294
l-63 66 0 -467z"/>
<path d="M1875 4339 c-20 -21 -16 -68 6 -82 25 -16 68 0 75 27 13 52 -47 93
-81 55z"/>
<path d="M1335 4105 c-193 -72 -235 -371 -72 -516 88 -78 255 -78 347 1 39 34
50 31 45 -10 -3 -27 -1 -30 26 -30 26 0 29 3 30 33 0 44 0 499 0 515 -1 6 -14
12 -30 12 -27 0 -28 -2 -26 -45 l2 -46 -31 30 c-17 16 -47 37 -66 47 -47 24
-172 29 -225 9z m190 -59 c102 -43 152 -153 126 -277 -24 -112 -106 -183 -210
-183 -131 1 -215 96 -215 244 0 53 5 85 18 110 58 111 169 153 281 106z"/>
<path d="M2165 4104 c-16 -9 -38 -27 -49 -41 -23 -31 -31 -98 -17 -135 13 -35
80 -83 144 -106 70 -24 117 -70 117 -113 0 -74 -53 -124 -127 -122 -54 2 -89
24 -118 75 -17 29 -24 33 -45 28 -26 -7 -27 -14 -5 -66 34 -81 174 -119 265
-72 65 33 92 84 87 165 -4 81 -31 111 -140 155 -44 18 -90 43 -103 55 -25 23
-31 61 -14 94 12 21 57 46 80 44 8 -1 23 -3 33 -3 10 -1 29 -13 43 -28 30 -29
58 -28 62 3 2 15 -8 30 -33 49 -45 34 -132 43 -180 18z"/>
<path d="M2585 4104 c-45 -23 -68 -61 -73 -118 -5 -71 29 -111 135 -156 43
-18 91 -46 107 -63 25 -26 28 -36 23 -74 -6 -52 -36 -89 -84 -102 -69 -19
-128 10 -164 81 -13 24 -16 25 -42 15 l-27 -12 21 -43 c64 -128 267 -137 336
-16 31 54 31 129 0 175 -22 33 -47 49 -172 106 -44 21 -62 35 -69 56 -14 40 3
79 45 99 44 22 94 11 125 -27 20 -25 21 -26 43 -8 l22 18 -22 29 c-42 53 -139
72 -204 40z"/>
<path d="M1880 3830 l0 -280 28 0 28 0 -1 280 0 280 -27 0 -28 0 0 -280z"/>
<path d="M3106 2798 c10 -134 121 -357 313 -626 l66 -93 1 -272 c1 -150 4
-290 8 -312 15 -81 27 -115 41 -115 18 0 18 -3 -1 67 -13 46 -17 113 -19 315
-1 141 0 268 2 282 5 22 29 38 155 101 l150 75 308 0 c267 0 309 2 304 15 -5
12 -62 15 -362 17 l-357 3 -65 31 c-201 95 -238 237 -96 374 24 24 52 47 60
52 8 5 13 15 10 23 -5 13 -10 12 -33 -4 -172 -123 -198 -281 -65 -399 53 -47
163 -102 205 -102 37 0 9 -21 -108 -78 -102 -50 -116 -54 -124 -40 -5 10 -15
23 -22 30 -44 47 -193 279 -252 395 -55 108 -81 184 -90 257 -5 35 -12 56 -20
56 -9 0 -12 -15 -9 -52z"/>
<path d="M2529 2380 c0 -16 -2 -52 -2 -80 -2 -39 1 -50 14 -50 12 0 15 13 13
73 -2 89 -2 87 -14 87 -5 0 -10 -13 -11 -30z"/>
</g>
</svg>
